Fun with R: Ecological data analysis in R
…
Splitting rows

income.long %>% separate_rows(var1, sep = "_")

## # A tibble: 40 x 3
##    state         var1     income
##    <chr>         <chr>     <int>
##  1 Maine         male       4194
##  2 Maine         fulltime   4194
##  3 Maine         male       1508
##  4 Maine         other      1508
##  5 Maine         female     3337
##  6 Maine         fulltime   3337
##  7 Maine         female     1148
##  8 Maine         other      1148
##  9 Massachusetts male       5505
## 10 Massachusetts fulltime   5505
## # ... with 30 more rows
…
