Fun with R: Ecological data analysis in R
…
The concept of random variables is not easy to get, so it is okay to not completely understand the full concept at this point. Whether a variable should be considered a fixed or random variable will also depend on the interpretation of the person doing the analysis, adding sometime one layer of subjectivity.

Mixed effects models

When a model includes both fixed effects and random effects, it is called a mixed effects model.

For more complex models, specifying random effects can become difficult. Random effects can be crossed with one another or can be nested within one another. Also, correlation structures for the random effects can be specified. However, here, we will just keep it simple using an example with our rairuoho data set.

rairuoho<-read.table('Data/rairuoho.txt',header=T, sep="\t", dec=".")
rairuoho$ID<-rownames(rairuoho)
rai<-rairuoho %>% pivot_longer(day3:day8, names_to = "day", values_to = "length")
rai$day<-parse_number(rai$day)
rai

## # A tibble: 288 x 10
##    germinate bed    treatment spatial1 spatial2   row column ID      day length
##        <int> <chr>  <chr>     <chr>    <chr>    <int>  <int> <chr> <dbl>  <int>
##  1        18 paper4 nutrient  upper    left         1      1 1         3      2
##  2        18 paper4 nutrient  upper    left         1      1 1         4     13
##  3        18 paper4 nutrient  upper    left         1      1 1         5     34
##  4        18 paper4 nutrient  upper    left         1      1 1         6     85
##  5        18 paper4 nutrient  upper    left         1      1 1         7    112
##  6        18 paper4 nutrient  upper    left         1      1 1         8    121
##  7        19 mould1 nutrient  upper    left         2      1 2         3      5
##  8        19 mould1 nutrient  upper    left         2      1 2         4     22
##  9        19 mould1 nutrient  upper    left         2      1 2         5     60
## 10        19 mould1 nutrient  upper    left         2      1 2         6     95
## # ... with 278 more rows
…
